%YAML 1.1
%TAG !u! tag:unity3d.com,2011:
--- !u!1 &2966823549333321670
GameObject:
  m_ObjectHideFlags: 0
  m_CorrespondingSourceObject: {fileID: 0}
  m_PrefabInstance: {fileID: 0}
  m_PrefabAsset: {fileID: 0}
  serializedVersion: 6
  m_Component:
  - component: {fileID: 7787807349521172510}
  - component: {fileID: 2069380495323665999}
  m_Layer: 31
  m_Name: Outdoor Tiles
  m_TagString: Untagged
  m_Icon: {fileID: 0}
  m_NavMeshLayer: 0
  m_StaticEditorFlags: 0
  m_IsActive: 1
--- !u!4 &7787807349521172510
Transform:
  m_ObjectHideFlags: 0
  m_CorrespondingSourceObject: {fileID: 0}
  m_PrefabInstance: {fileID: 0}
  m_PrefabAsset: {fileID: 0}
  m_GameObject: {fileID: 2966823549333321670}
  m_LocalRotation: {x: 0, y: 0, z: 0, w: 1}
  m_LocalPosition: {x: 0, y: 0, z: 0}
  m_LocalScale: {x: 1, y: 1, z: 1}
  m_Children:
  - {fileID: 2336635448888188451}
  m_Father: {fileID: 0}
  m_RootOrder: 0
  m_LocalEulerAnglesHint: {x: 0, y: 0, z: 0}
--- !u!156049354 &2069380495323665999
Grid:
  m_ObjectHideFlags: 0
  m_CorrespondingSourceObject: {fileID: 0}
  m_PrefabInstance: {fileID: 0}
  m_PrefabAsset: {fileID: 0}
  m_GameObject: {fileID: 2966823549333321670}
  m_Enabled: 1
  m_CellSize: {x: 1, y: 1, z: 0}
  m_CellGap: {x: 0, y: 0, z: 0}
  m_CellLayout: 0
  m_CellSwizzle: 0
--- !u!1 &4813976536433409112
GameObject:
  m_ObjectHideFlags: 0
  m_CorrespondingSourceObject: {fileID: 0}
  m_PrefabInstance: {fileID: 0}
  m_PrefabAsset: {fileID: 0}
  serializedVersion: 6
  m_Component:
  - component: {fileID: 2336635448888188451}
  - component: {fileID: 4258406336783008327}
  - component: {fileID: 2176105525150265425}
  m_Layer: 31
  m_Name: Layer1
  m_TagString: Untagged
  m_Icon: {fileID: 0}
  m_NavMeshLayer: 0
  m_StaticEditorFlags: 0
  m_IsActive: 1
--- !u!4 &2336635448888188451
Transform:
  m_ObjectHideFlags: 0
  m_CorrespondingSourceObject: {fileID: 0}
  m_PrefabInstance: {fileID: 0}
  m_PrefabAsset: {fileID: 0}
  m_GameObject: {fileID: 4813976536433409112}
  m_LocalRotation: {x: -0, y: -0, z: -0, w: 1}
  m_LocalPosition: {x: 0, y: 0, z: 0}
  m_LocalScale: {x: 1, y: 1, z: 1}
  m_Children: []
  m_Father: {fileID: 7787807349521172510}
  m_RootOrder: 0
  m_LocalEulerAnglesHint: {x: 0, y: 0, z: 0}
--- !u!1839735485 &4258406336783008327
Tilemap:
  m_ObjectHideFlags: 0
  m_CorrespondingSourceObject: {fileID: 0}
  m_PrefabInstance: {fileID: 0}
  m_PrefabAsset: {fileID: 0}
  m_GameObject: {fileID: 4813976536433409112}
  m_Enabled: 1
  m_Tiles:
  - first: {x: -3, y: -4, z: 0}
    second:
      m_TileIndex: 42
      m_TileSpriteIndex: 42
      m_TileMatrixIndex: 0
      m_TileColorIndex: 0
      m_ObjectToInstantiate: {fileID: 0}
      m_TileFlags: 1
      m_ColliderType: 1
  - first: {x: -2, y: -4, z: 0}
    second:
      m_TileIndex: 43
      m_TileSpriteIndex: 43
      m_TileMatrixIndex: 0
      m_TileColorIndex: 0
      m_ObjectToInstantiate: {fileID: 0}
      m_TileFlags: 1
      m_ColliderType: 1
  - first: {x: -1, y: -4, z: 0}
    second:
      m_TileIndex: 44
      m_TileSpriteIndex: 44
      m_TileMatrixIndex: 0
      m_TileColorIndex: 0
      m_ObjectToInstantiate: {fileID: 0}
      m_TileFlags: 1
      m_ColliderType: 1
  - first: {x: 0, y: -4, z: 0}
    second:
      m_TileIndex: 45
      m_TileSpriteIndex: 45
      m_TileMatrixIndex: 0
      m_TileColorIndex: 0
      m_ObjectToInstantiate: {fileID: 0}
      m_TileFlags: 1
      m_ColliderType: 1
  - first: {x: 1, y: -4, z: 0}
    second:
      m_TileIndex: 46
      m_TileSpriteIndex: 46
      m_TileMatrixIndex: 0
      m_TileColorIndex: 0
      m_ObjectToInstantiate: {fileID: 0}
      m_TileFlags: 1
      m_ColliderType: 1
  - first: {x: 2, y: -4, z: 0}
    second:
      m_TileIndex: 47
      m_TileSpriteIndex: 47
      m_TileMatrixIndex: 0
      m_TileColorIndex: 0
      m_ObjectToInstantiate: {fileID: 0}
      m_TileFlags: 1
      m_ColliderType: 1
  - first: {x: -3, y: -3, z: 0}
    second:
      m_TileIndex: 36
      m_TileSpriteIndex: 36
      m_TileMatrixIndex: 0
      m_TileColorIndex: 0
      m_ObjectToInstantiate: {fileID: 0}
      m_TileFlags: 1
      m_ColliderType: 1
  - first: {x: -2, y: -3, z: 0}
    second:
      m_TileIndex: 37
      m_TileSpriteIndex: 37
      m_TileMatrixIndex: 0
      m_TileColorIndex: 0
      m_ObjectToInstantiate: {fileID: 0}
      m_TileFlags: 1
      m_ColliderType: 1
  - first: {x: -1, y: -3, z: 0}
    second:
      m_TileIndex: 38
      m_TileSpriteIndex: 38
      m_TileMatrixIndex: 0
      m_TileColorIndex: 0
      m_ObjectToInstantiate: {fileID: 0}
      m_TileFlags: 1
      m_ColliderType: 1
  - first: {x: 0, y: -3, z: 0}
    second:
      m_TileIndex: 39
      m_TileSpriteIndex: 39
      m_TileMatrixIndex: 0
      m_TileColorIndex: 0
      m_ObjectToInstantiate: {fileID: 0}
      m_TileFlags: 1
      m_ColliderType: 1
  - first: {x: 1, y: -3, z: 0}
    second:
      m_TileIndex: 40
      m_TileSpriteIndex: 40
      m_TileMatrixIndex: 0
      m_TileColorIndex: 0
      m_ObjectToInstantiate: {fileID: 0}
      m_TileFlags: 1
      m_ColliderType: 1
  - first: {x: 2, y: -3, z: 0}
    second:
      m_TileIndex: 41
      m_TileSpriteIndex: 41
      m_TileMatrixIndex: 0
      m_TileColorIndex: 0
      m_ObjectToInstantiate: {fileID: 0}
      m_TileFlags: 1
      m_ColliderType: 1
  - first: {x: -3, y: -2, z: 0}
    second:
      m_TileIndex: 30
      m_TileSpriteIndex: 30
      m_TileMatrixIndex: 0
      m_TileColorIndex: 0
      m_ObjectToInstantiate: {fileID: 0}
      m_TileFlags: 1
      m_ColliderType: 1
  - first: {x: -2, y: -2, z: 0}
    second:
      m_TileIndex: 31
      m_TileSpriteIndex: 31
      m_TileMatrixIndex: 0
      m_TileColorIndex: 0
      m_ObjectToInstantiate: {fileID: 0}
      m_TileFlags: 1
      m_ColliderType: 1
  - first: {x: -1, y: -2, z: 0}
    second:
      m_TileIndex: 32
      m_TileSpriteIndex: 32
      m_TileMatrixIndex: 0
      m_TileColorIndex: 0
      m_ObjectToInstantiate: {fileID: 0}
      m_TileFlags: 1
      m_ColliderType: 1
  - first: {x: 0, y: -2, z: 0}
    second:
      m_TileIndex: 33
      m_TileSpriteIndex: 33
      m_TileMatrixIndex: 0
      m_TileColorIndex: 0
      m_ObjectToInstantiate: {fileID: 0}
      m_TileFlags: 1
      m_ColliderType: 1
  - first: {x: 1, y: -2, z: 0}
    second:
      m_TileIndex: 34
      m_TileSpriteIndex: 34
      m_TileMatrixIndex: 0
      m_TileColorIndex: 0
      m_ObjectToInstantiate: {fileID: 0}
      m_TileFlags: 1
      m_ColliderType: 1
  - first: {x: 2, y: -2, z: 0}
    second:
      m_TileIndex: 35
      m_TileSpriteIndex: 35
      m_TileMatrixIndex: 0
      m_TileColorIndex: 0
      m_ObjectToInstantiate: {fileID: 0}
      m_TileFlags: 1
      m_ColliderType: 1
  - first: {x: -3, y: -1, z: 0}
    second:
      m_TileIndex: 24
      m_TileSpriteIndex: 24
      m_TileMatrixIndex: 0
      m_TileColorIndex: 0
      m_ObjectToInstantiate: {fileID: 0}
      m_TileFlags: 1
      m_ColliderType: 1
  - first: {x: -2, y: -1, z: 0}
    second:
      m_TileIndex: 25
      m_TileSpriteIndex: 25
      m_TileMatrixIndex: 0
      m_TileColorIndex: 0
      m_ObjectToInstantiate: {fileID: 0}
      m_TileFlags: 1
      m_ColliderType: 1
  - first: {x: -1, y: -1, z: 0}
    second:
      m_TileIndex: 26
      m_TileSpriteIndex: 26
      m_TileMatrixIndex: 0
      m_TileColorIndex: 0
      m_ObjectToInstantiate: {fileID: 0}
      m_TileFlags: 1
      m_ColliderType: 1
  - first: {x: 0, y: -1, z: 0}
    second:
      m_TileIndex: 27
      m_TileSpriteIndex: 27
      m_TileMatrixIndex: 0
      m_TileColorIndex: 0
      m_ObjectToInstantiate: {fileID: 0}
      m_TileFlags: 1
      m_ColliderType: 1
  - first: {x: 1, y: -1, z: 0}
    second:
      m_TileIndex: 28
      m_TileSpriteIndex: 28
      m_TileMatrixIndex: 0
      m_TileColorIndex: 0
      m_ObjectToInstantiate: {fileID: 0}
      m_TileFlags: 1
      m_ColliderType: 1
  - first: {x: 2, y: -1, z: 0}
    second:
      m_TileIndex: 29
      m_TileSpriteIndex: 29
      m_TileMatrixIndex: 0
      m_TileColorIndex: 0
      m_ObjectToInstantiate: {fileID: 0}
      m_TileFlags: 1
      m_ColliderType: 1
  - first: {x: -3, y: 0, z: 0}
    second:
      m_TileIndex: 18
      m_TileSpriteIndex: 18
      m_TileMatrixIndex: 0
      m_TileColorIndex: 0
      m_ObjectToInstantiate: {fileID: 0}
      m_TileFlags: 1
      m_ColliderType: 1
  - first: {x: -2, y: 0, z: 0}
    second:
      m_TileIndex: 19
      m_TileSpriteIndex: 19
      m_TileMatrixIndex: 0
      m_TileColorIndex: 0
      m_ObjectToInstantiate: {fileID: 0}
      m_TileFlags: 1
      m_ColliderType: 1
  - first: {x: -1, y: 0, z: 0}
    second:
      m_TileIndex: 20
      m_TileSpriteIndex: 20
      m_TileMatrixIndex: 0
      m_TileColorIndex: 0
      m_ObjectToInstantiate: {fileID: 0}
      m_TileFlags: 1
      m_ColliderType: 1
  - first: {x: 0, y: 0, z: 0}
    second:
      m_TileIndex: 21
      m_TileSpriteIndex: 21
      m_TileMatrixIndex: 0
      m_TileColorIndex: 0
      m_ObjectToInstantiate: {fileID: 0}
      m_TileFlags: 1
      m_ColliderType: 1
  - first: {x: 1, y: 0, z: 0}
    second:
      m_TileIndex: 22
      m_TileSpriteIndex: 22
      m_TileMatrixIndex: 0
      m_TileColorIndex: 0
      m_ObjectToInstantiate: {fileID: 0}
      m_TileFlags: 1
      m_ColliderType: 1
  - first: {x: 2, y: 0, z: 0}
    second:
      m_TileIndex: 23
      m_TileSpriteIndex: 23
      m_TileMatrixIndex: 0
      m_TileColorIndex: 0
      m_ObjectToInstantiate: {fileID: 0}
      m_TileFlags: 1
      m_ColliderType: 1
  - first: {x: -3, y: 1, z: 0}
    second:
      m_TileIndex: 12
      m_TileSpriteIndex: 12
      m_TileMatrixIndex: 0
      m_TileColorIndex: 0
      m_ObjectToInstantiate: {fileID: 0}
      m_TileFlags: 1
      m_ColliderType: 1
  - first: {x: -2, y: 1, z: 0}
    second:
      m_TileIndex: 13
      m_TileSpriteIndex: 13
      m_TileMatrixIndex: 0
      m_TileColorIndex: 0
      m_ObjectToInstantiate: {fileID: 0}
      m_TileFlags: 1
      m_ColliderType: 1
  - first: {x: -1, y: 1, z: 0}
    second:
      m_TileIndex: 14
      m_TileSpriteIndex: 14
      m_TileMatrixIndex: 0
      m_TileColorIndex: 0
      m_ObjectToInstantiate: {fileID: 0}
      m_TileFlags: 1
      m_ColliderType: 1
  - first: {x: 0, y: 1, z: 0}
    second:
      m_TileIndex: 15
      m_TileSpriteIndex: 15
      m_TileMatrixIndex: 0
      m_TileColorIndex: 0
      m_ObjectToInstantiate: {fileID: 0}
      m_TileFlags: 1
      m_ColliderType: 1
  - first: {x: 1, y: 1, z: 0}
    second:
      m_TileIndex: 16
      m_TileSpriteIndex: 16
      m_TileMatrixIndex: 0
      m_TileColorIndex: 0
      m_ObjectToInstantiate: {fileID: 0}
      m_TileFlags: 1
      m_ColliderType: 1
  - first: {x: 2, y: 1, z: 0}
    second:
      m_TileIndex: 17
      m_TileSpriteIndex: 17
      m_TileMatrixIndex: 0
      m_TileColorIndex: 0
      m_ObjectToInstantiate: {fileID: 0}
      m_TileFlags: 1
      m_ColliderType: 1
  - first: {x: -3, y: 2, z: 0}
    second:
      m_TileIndex: 6
      m_TileSpriteIndex: 6
      m_TileMatrixIndex: 0
      m_TileColorIndex: 0
      m_ObjectToInstantiate: {fileID: 0}
      m_TileFlags: 1
      m_ColliderType: 1
  - first: {x: -2, y: 2, z: 0}
    second:
      m_TileIndex: 7
      m_TileSpriteIndex: 7
      m_TileMatrixIndex: 0
      m_TileColorIndex: 0
      m_ObjectToInstantiate: {fileID: 0}
      m_TileFlags: 1
      m_ColliderType: 1
  - first: {x: -1, y: 2, z: 0}
    second:
      m_TileIndex: 8
      m_TileSpriteIndex: 8
      m_TileMatrixIndex: 0
      m_TileColorIndex: 0
      m_ObjectToInstantiate: {fileID: 0}
      m_TileFlags: 1
      m_ColliderType: 1
  - first: {x: 0, y: 2, z: 0}
    second:
      m_TileIndex: 9
      m_TileSpriteIndex: 9
      m_TileMatrixIndex: 0
      m_TileColorIndex: 0
      m_ObjectToInstantiate: {fileID: 0}
      m_TileFlags: 1
      m_ColliderType: 1
  - first: {x: 1, y: 2, z: 0}
    second:
      m_TileIndex: 10
      m_TileSpriteIndex: 10
      m_TileMatrixIndex: 0
      m_TileColorIndex: 0
      m_ObjectToInstantiate: {fileID: 0}
      m_TileFlags: 1
      m_ColliderType: 1
  - first: {x: 2, y: 2, z: 0}
    second:
      m_TileIndex: 11
      m_TileSpriteIndex: 11
      m_TileMatrixIndex: 0
      m_TileColorIndex: 0
      m_ObjectToInstantiate: {fileID: 0}
      m_TileFlags: 1
      m_ColliderType: 1
  - first: {x: -3, y: 3, z: 0}
    second:
      m_TileIndex: 0
      m_TileSpriteIndex: 0
      m_TileMatrixIndex: 0
      m_TileColorIndex: 0
      m_ObjectToInstantiate: {fileID: 0}
      m_TileFlags: 1
      m_ColliderType: 1
  - first: {x: -2, y: 3, z: 0}
    second:
      m_TileIndex: 1
      m_TileSpriteIndex: 1
      m_TileMatrixIndex: 0
      m_TileColorIndex: 0
      m_ObjectToInstantiate: {fileID: 0}
      m_TileFlags: 1
      m_ColliderType: 1
  - first: {x: -1, y: 3, z: 0}
    second:
      m_TileIndex: 2
      m_TileSpriteIndex: 2
      m_TileMatrixIndex: 0
      m_TileColorIndex: 0
      m_ObjectToInstantiate: {fileID: 0}
      m_TileFlags: 1
      m_ColliderType: 1
  - first: {x: 0, y: 3, z: 0}
    second:
      m_TileIndex: 3
      m_TileSpriteIndex: 3
      m_TileMatrixIndex: 0
      m_TileColorIndex: 0
      m_ObjectToInstantiate: {fileID: 0}
      m_TileFlags: 1
      m_ColliderType: 1
  - first: {x: 1, y: 3, z: 0}
    second:
      m_TileIndex: 4
      m_TileSpriteIndex: 4
      m_TileMatrixIndex: 0
      m_TileColorIndex: 0
      m_ObjectToInstantiate: {fileID: 0}
      m_TileFlags: 1
      m_ColliderType: 1
  - first: {x: 2, y: 3, z: 0}
    second:
      m_TileIndex: 5
      m_TileSpriteIndex: 5
      m_TileMatrixIndex: 0
      m_TileColorIndex: 0
      m_ObjectToInstantiate: {fileID: 0}
      m_TileFlags: 1
      m_ColliderType: 1
  m_AnimatedTiles: {}
  m_TileAssetArray:
  - m_RefCount: 1
    m_Data: {fileID: 11400000, guid: cd9830d67de1f8441a79407f87f43d3a, type: 2}
  - m_RefCount: 1
    m_Data: {fileID: 11400000, guid: 79cae0a1964829741a603707c2011fb4, type: 2}
  - m_RefCount: 1
    m_Data: {fileID: 11400000, guid: 60ff317d38846eb448ef109bdca0a17a, type: 2}
  - m_RefCount: 1
    m_Data: {fileID: 11400000, guid: d3cc0d6f2252b7a44af8ae23753c9e2b, type: 2}
  - m_RefCount: 1
    m_Data: {fileID: 11400000, guid: 53fbe81ec747070449b20f860dbadc20, type: 2}
  - m_RefCount: 1
    m_Data: {fileID: 11400000, guid: 0679ad1f313fad441955c49ffe33289d, type: 2}
  - m_RefCount: 1
    m_Data: {fileID: 11400000, guid: 158287216bc580345a66f86c0d4fe877, type: 2}
  - m_RefCount: 1
    m_Data: {fileID: 11400000, guid: 2306756a8e9fc38418fc9bf18a148e98, type: 2}
  - m_RefCount: 1
    m_Data: {fileID: 11400000, guid: b73395f6ed5ac8f43a9a333ededd7293, type: 2}
  - m_RefCount: 1
    m_Data: {fileID: 11400000, guid: 904278335a03d5643ac5d42301408b0f, type: 2}
  - m_RefCount: 1
    m_Data: {fileID: 11400000, guid: 13b9b1308aa11954da806c16f11613cb, type: 2}
  - m_RefCount: 1
    m_Data: {fileID: 11400000, guid: 00e6758ab40989d4b8f6b61d0386bce7, type: 2}
  - m_RefCount: 1
    m_Data: {fileID: 11400000, guid: e5bba905474049e41baaa9ec2bb05eda, type: 2}
  - m_RefCount: 1
    m_Data: {fileID: 11400000, guid: e3fd546dcb01d8b4a8105185d5d2ca40, type: 2}
  - m_RefCount: 1
    m_Data: {fileID: 11400000, guid: fc711468b9bcffe469bbe51820da4f23, type: 2}
  - m_RefCount: 1
    m_Data: {fileID: 11400000, guid: 3f4a891f39c38ac49824a4e44454b93d, type: 2}
  - m_RefCount: 1
    m_Data: {fileID: 11400000, guid: a83c51b42b0788f40bd6eee04f575fa0, type: 2}
  - m_RefCount: 1
    m_Data: {fileID: 11400000, guid: db52b4313af44974bb826d63f9b0b7b2, type: 2}
  - m_RefCount: 1
    m_Data: {fileID: 11400000, guid: 148f272bd8cde3847afa94e6842613c2, type: 2}
  - m_RefCount: 1
    m_Data: {fileID: 11400000, guid: ae62186d0a2ba204aa3f979902de7c1f, type: 2}
  - m_RefCount: 1
    m_Data: {fileID: 11400000, guid: 8ff6ffd700ce60c4cbf82866dc5e470c, type: 2}
  - m_RefCount: 1
    m_Data: {fileID: 11400000, guid: 4ea08e50f54d5e247a928ace268c917b, type: 2}
  - m_RefCount: 1
    m_Data: {fileID: 11400000, guid: ea01ac4635ab44e40a6823eb79f5db7e, type: 2}
  - m_RefCount: 1
    m_Data: {fileID: 11400000, guid: a0db332097ad1d449a15e4cb2e8363d0, type: 2}
  - m_RefCount: 1
    m_Data: {fileID: 11400000, guid: 89de1e5dd1e5e5847a8cee88dca41e92, type: 2}
  - m_RefCount: 1
    m_Data: {fileID: 11400000, guid: cd46572e7d27ea94692b72a8d7b1777a, type: 2}
  - m_RefCount: 1
    m_Data: {fileID: 11400000, guid: 30825ec31d70b3f46a2664ff1f9dd685, type: 2}
  - m_RefCount: 1
    m_Data: {fileID: 11400000, guid: e15cacfbfb69fd449b8f5becbc09486f, type: 2}
  - m_RefCount: 1
    m_Data: {fileID: 11400000, guid: a612c66366980354ebb3b6864a59b6a4, type: 2}
  - m_RefCount: 1
    m_Data: {fileID: 11400000, guid: 5ff9d88631272734b9ff57a476b480b4, type: 2}
  - m_RefCount: 1
    m_Data: {fileID: 11400000, guid: 11ef121f0ce7fca46a968c749cc7b6d6, type: 2}
  - m_RefCount: 1
    m_Data: {fileID: 11400000, guid: e8827dc0094d5164790aeac3e70fd61f, type: 2}
  - m_RefCount: 1
    m_Data: {fileID: 11400000, guid: 997f931215d82c54888e779a24308fa2, type: 2}
  - m_RefCount: 1
    m_Data: {fileID: 11400000, guid: 49a40da26ba2157429cd3a679785fa14, type: 2}
  - m_RefCount: 1
    m_Data: {fileID: 11400000, guid: afae46b05e0642a48a3dc555f7530df7, type: 2}
  - m_RefCount: 1
    m_Data: {fileID: 11400000, guid: 3b34032d2f55a584ea604d170ed9188f, type: 2}
  - m_RefCount: 1
    m_Data: {fileID: 11400000, guid: da8179d0b905c1d4e8259177da758c47, type: 2}
  - m_RefCount: 1
    m_Data: {fileID: 11400000, guid: 7fe123059973a424599fc58f10a25193, type: 2}
  - m_RefCount: 1
    m_Data: {fileID: 11400000, guid: 1e489841df25b65438c91783ab713e9a, type: 2}
  - m_RefCount: 1
    m_Data: {fileID: 11400000, guid: 019943394ac356d408da3aa7d27f2b52, type: 2}
  - m_RefCount: 1
    m_Data: {fileID: 11400000, guid: eacc02517d301cc468782e1d1d31aabc, type: 2}
  - m_RefCount: 1
    m_Data: {fileID: 11400000, guid: 986ceb7903715174ebb85c7c2d0dbe97, type: 2}
  - m_RefCount: 1
    m_Data: {fileID: 11400000, guid: ed1667be24de51f4fb614da60323ba07, type: 2}
  - m_RefCount: 1
    m_Data: {fileID: 11400000, guid: e9a68fd4549960a40912f049914c3415, type: 2}
  - m_RefCount: 1
    m_Data: {fileID: 11400000, guid: 9c5b54cb48355a64f80e6b69dbab1944, type: 2}
  - m_RefCount: 1
    m_Data: {fileID: 11400000, guid: 0ae753152a2570b4cae59e70122fff83, type: 2}
  - m_RefCount: 1
    m_Data: {fileID: 11400000, guid: 4861365fc3eed2c4a9d05b666e203c3f, type: 2}
  - m_RefCount: 1
    m_Data: {fileID: 11400000, guid: 04f0f9be7aaf2bd459c9b237169f37ed, type: 2}
  m_TileSpriteArray:
  - m_RefCount: 1
    m_Data: {fileID: 21300000, guid: ee08dab35ea54394c8a5d73fced34ded, type: 3}
  - m_RefCount: 1
    m_Data: {fileID: 21300002, guid: ee08dab35ea54394c8a5d73fced34ded, type: 3}
  - m_RefCount: 1
    m_Data: {fileID: 21300004, guid: ee08dab35ea54394c8a5d73fced34ded, type: 3}
  - m_RefCount: 1
    m_Data: {fileID: 21300006, guid: ee08dab35ea54394c8a5d73fced34ded, type: 3}
  - m_RefCount: 1
    m_Data: {fileID: 21300008, guid: ee08dab35ea54394c8a5d73fced34ded, type: 3}
  - m_RefCount: 1
    m_Data: {fileID: 21300010, guid: ee08dab35ea54394c8a5d73fced34ded, type: 3}
  - m_RefCount: 1
    m_Data: {fileID: 21300012, guid: ee08dab35ea54394c8a5d73fced34ded, type: 3}
  - m_RefCount: 1
    m_Data: {fileID: 21300014, guid: ee08dab35ea54394c8a5d73fced34ded, type: 3}
  - m_RefCount: 1
    m_Data: {fileID: 21300016, guid: ee08dab35ea54394c8a5d73fced34ded, type: 3}
  - m_RefCount: 1
    m_Data: {fileID: 21300018, guid: ee08dab35ea54394c8a5d73fced34ded, type: 3}
  - m_RefCount: 1
    m_Data: {fileID: 21300020, guid: ee08dab35ea54394c8a5d73fced34ded, type: 3}
  - m_RefCount: 1
    m_Data: {fileID: 21300022, guid: ee08dab35ea54394c8a5d73fced34ded, type: 3}
  - m_RefCount: 1
    m_Data: {fileID: 21300024, guid: ee08dab35ea54394c8a5d73fced34ded, type: 3}
  - m_RefCount: 1
    m_Data: {fileID: 21300026, guid: ee08dab35ea54394c8a5d73fced34ded, type: 3}
  - m_RefCount: 1
    m_Data: {fileID: 21300028, guid: ee08dab35ea54394c8a5d73fced34ded, type: 3}
  - m_RefCount: 1
    m_Data: {fileID: 21300030, guid: ee08dab35ea54394c8a5d73fced34ded, type: 3}
  - m_RefCount: 1
    m_Data: {fileID: 21300032, guid: ee08dab35ea54394c8a5d73fced34ded, type: 3}
  - m_RefCount: 1
    m_Data: {fileID: 21300034, guid: ee08dab35ea54394c8a5d73fced34ded, type: 3}
  - m_RefCount: 1
    m_Data: {fileID: 21300036, guid: ee08dab35ea54394c8a5d73fced34ded, type: 3}
  - m_RefCount: 1
    m_Data: {fileID: 21300038, guid: ee08dab35ea54394c8a5d73fced34ded, type: 3}
  - m_RefCount: 1
    m_Data: {fileID: 21300040, guid: ee08dab35ea54394c8a5d73fced34ded, type: 3}
  - m_RefCount: 1
    m_Data: {fileID: 21300042, guid: ee08dab35ea54394c8a5d73fced34ded, type: 3}
  - m_RefCount: 1
    m_Data: {fileID: 21300044, guid: ee08dab35ea54394c8a5d73fced34ded, type: 3}
  - m_RefCount: 1
    m_Data: {fileID: 21300046, guid: ee08dab35ea54394c8a5d73fced34ded, type: 3}
  - m_RefCount: 1
    m_Data: {fileID: 21300048, guid: ee08dab35ea54394c8a5d73fced34ded, type: 3}
  - m_RefCount: 1
    m_Data: {fileID: 21300050, guid: ee08dab35ea54394c8a5d73fced34ded, type: 3}
  - m_RefCount: 1
    m_Data: {fileID: 21300052, guid: ee08dab35ea54394c8a5d73fced34ded, type: 3}
  - m_RefCount: 1
    m_Data: {fileID: 21300054, guid: ee08dab35ea54394c8a5d73fced34ded, type: 3}
  - m_RefCount: 1
    m_Data: {fileID: 21300056, guid: ee08dab35ea54394c8a5d73fced34ded, type: 3}
  - m_RefCount: 1
    m_Data: {fileID: 21300058, guid: ee08dab35ea54394c8a5d73fced34ded, type: 3}
  - m_RefCount: 1
    m_Data: {fileID: 21300060, guid: ee08dab35ea54394c8a5d73fced34ded, type: 3}
  - m_RefCount: 1
    m_Data: {fileID: 21300062, guid: ee08dab35ea54394c8a5d73fced34ded, type: 3}
  - m_RefCount: 1
    m_Data: {fileID: 21300064, guid: ee08dab35ea54394c8a5d73fced34ded, type: 3}
  - m_RefCount: 1
    m_Data: {fileID: 21300066, guid: ee08dab35ea54394c8a5d73fced34ded, type: 3}
  - m_RefCount: 1
    m_Data: {fileID: 21300068, guid: ee08dab35ea54394c8a5d73fced34ded, type: 3}
  - m_RefCount: 1
    m_Data: {fileID: 21300070, guid: ee08dab35ea54394c8a5d73fced34ded, type: 3}
  - m_RefCount: 1
    m_Data: {fileID: 21300072, guid: ee08dab35ea54394c8a5d73fced34ded, type: 3}
  - m_RefCount: 1
    m_Data: {fileID: 21300074, guid: ee08dab35ea54394c8a5d73fced34ded, type: 3}
  - m_RefCount: 1
    m_Data: {fileID: 21300076, guid: ee08dab35ea54394c8a5d73fced34ded, type: 3}
  - m_RefCount: 1
    m_Data: {fileID: 21300078, guid: ee08dab35ea54394c8a5d73fced34ded, type: 3}
  - m_RefCount: 1
    m_Data: {fileID: 21300080, guid: ee08dab35ea54394c8a5d73fced34ded, type: 3}
  - m_RefCount: 1
    m_Data: {fileID: 21300082, guid: ee08dab35ea54394c8a5d73fced34ded, type: 3}
  - m_RefCount: 1
    m_Data: {fileID: 21300084, guid: ee08dab35ea54394c8a5d73fced34ded, type: 3}
  - m_RefCount: 1
    m_Data: {fileID: 21300086, guid: ee08dab35ea54394c8a5d73fced34ded, type: 3}
  - m_RefCount: 1
    m_Data: {fileID: 21300088, guid: ee08dab35ea54394c8a5d73fced34ded, type: 3}
  - m_RefCount: 1
    m_Data: {fileID: 21300090, guid: ee08dab35ea54394c8a5d73fced34ded, type: 3}
  - m_RefCount: 1
    m_Data: {fileID: 21300092, guid: ee08dab35ea54394c8a5d73fced34ded, type: 3}
  - m_RefCount: 1
    m_Data: {fileID: 21300094, guid: ee08dab35ea54394c8a5d73fced34ded, type: 3}
  m_TileMatrixArray:
  - m_RefCount: 48
    m_Data:
      e00: 1
      e01: 0
      e02: 0
      e03: 0
      e10: 0
      e11: 1
      e12: 0
      e13: 0
      e20: 0
      e21: 0
      e22: 1
      e23: 0
      e30: 0
      e31: 0
      e32: 0
      e33: 1
  m_TileColorArray:
  - m_RefCount: 48
    m_Data: {r: 1, g: 1, b: 1, a: 1}
  m_AnimationFrameRate: 1
  m_Color: {r: 1, g: 1, b: 1, a: 1}
  m_Origin: {x: -3, y: -4, z: 0}
  m_Size: {x: 6, y: 8, z: 1}
  m_TileAnchor: {x: 0.5, y: 0.5, z: 0}
  m_TileOrientation: 0
  m_TileOrientationMatrix:
    e00: 1
    e01: 0
    e02: 0
    e03: 0
    e10: 0
    e11: 1
    e12: 0
    e13: 0
    e20: 0
    e21: 0
    e22: 1
    e23: 0
    e30: 0
    e31: 0
    e32: 0
    e33: 1
--- !u!483693784 &2176105525150265425
TilemapRenderer:
  m_ObjectHideFlags: 0
  m_CorrespondingSourceObject: {fileID: 0}
  m_PrefabInstance: {fileID: 0}
  m_PrefabAsset: {fileID: 0}
  m_GameObject: {fileID: 4813976536433409112}
  m_Enabled: 0
  m_CastShadows: 0
  m_ReceiveShadows: 0
  m_DynamicOccludee: 0
  m_MotionVectors: 1
  m_LightProbeUsage: 0
  m_ReflectionProbeUsage: 0
  m_RenderingLayerMask: 1
  m_RendererPriority: 0
  m_Materials:
  - {fileID: 10754, guid: 0000000000000000f000000000000000, type: 0}
  m_StaticBatchInfo:
    firstSubMesh: 0
    subMeshCount: 0
  m_StaticBatchRoot: {fileID: 0}
  m_ProbeAnchor: {fileID: 0}
  m_LightProbeVolumeOverride: {fileID: 0}
  m_ScaleInLightmap: 1
  m_PreserveUVs: 0
  m_IgnoreNormalsForChartDetection: 0
  m_ImportantGI: 0
  m_StitchLightmapSeams: 0
  m_SelectedEditorRenderState: 0
  m_MinimumChartSize: 4
  m_AutoUVMaxDistance: 0.5
  m_AutoUVMaxAngle: 89
  m_LightmapParameters: {fileID: 0}
  m_SortingLayerID: 0
  m_SortingLayer: 0
  m_SortingOrder: 0
  m_ChunkSize: {x: 32, y: 32, z: 32}
  m_ChunkCullingBounds: {x: 0, y: 0, z: 0}
  m_MaxChunkCount: 16
  m_MaxFrameAge: 16
  m_SortOrder: 0
  m_Mode: 0
  m_DetectChunkCullingBounds: 0
  m_MaskInteraction: 0
--- !u!114 &114095901541310690
MonoBehaviour:
  m_ObjectHideFlags: 0
  m_CorrespondingSourceObject: {fileID: 0}
  m_PrefabInstance: {fileID: 0}
  m_PrefabAsset: {fileID: 0}
  m_GameObject: {fileID: 0}
  m_Enabled: 1
  m_EditorHideFlags: 0
  m_Script: {fileID: 12395, guid: 0000000000000000e000000000000000, type: 0}
  m_Name: Palette Settings
  m_EditorClassIdentifier: 
  cellSizing: 0
